{
  "": {
    "language": "eo",
    "plural-forms": "nplurals=2; plural=(n!=1);"
  },
  "Import: ": "Importo: ",
  "A propos": "Pri",
  "Position the cursor still over elements to get more info on them.": "Loki la senmovan kursoron sur elementon por ekhavi pli da informoj pri ĝi.",
  "Settings": "Agordoj",
  "Load some headlines": "ŝarĝi iujn titolojn",
  "Show: ": "Montri",
  "all": " ĉiujn la ",
  " headlines ": " paĝotitolojn ",
  "Cancel": "Annuler",
  "Select sources by:": "Selekti la fontojn per:",
  "Type:": "Tipo",
  "encyclo.": "enciklopedio",
  "institution": "institucio",
  "magazine": "gazeto",
  "peer review": "Kolega reviziado",
  "Press": "Gazetaro",
  "Radio": "Radio",
  "Reference Press": "Referenca Gazetaro",
  "Scientific Press": "Scienca Gazetaro",
  "TV": "televido",
  "Result type:": "Speco de rezulto",
  "audio": "aŭdiaĵo",
  "photo": "fotaĵo",
  "text": "teksto",
  "video": "video",
	"Illustrated": "Ilustrita",
  "Language:": "Lingvo",
  "Themes:": "Temoj:",
  "docu.": "dokumentaro",
  "ecology": "ekologio",
  "financial": "financoj",
  "general": "generalo",
  "life-style": "vivmaniero",
  "media": "komunikiloj",
  "politics": "politiko",
  "science": "scienco",
  "techno.": "teknologio",
  "Technical criterion:": "teknikaj kriterioj:",
  "AND": "KAJ",
  "approx": "proksi",
  "exact": "ĝusta",
  "fast": "rapida",
  "OR": "Aŭ",
  "own search": "persona serĉo",
  "slow": "malrapida",
  "Scope:": "Regiono",
  "International": "Internacia",
  "National": "Nacia",
  "Regional": "Regiona",
  "Periodicity:": "Rikuro",
  "daily": "ĉiutaga",
  "half-yearly": "ĉiuduonjara",
  "monthly": "ĉiumonata",
  "weekly": "ĉiusemajna",
  "Country:": "Lando",
  "Cherry-pick sources:": "Elekti la fontojn:",
  "Custom Source": "Kutima Fonto",
  "Currently ": "Nun ",
  " source(s) selected. ": " elektita(j) fonto(j). ",
  " reset filters": " restarigo de filtriloj",
  " create source": "krei fonton",
  " is ": " ankoraŭ ",
  "waiting for ": "atendas ",
  " source(s)": " fonto(j)",
  " over ": " inter ",
  " selected, since ": " elektita(j), ekde ",
  " fetched ": " ekhavita ",
  " results for \"": " rezulto(j) por \"",
  " in ": " en ",
  "s from ": "s el ",
  " source(s) over ": " enda(j) fonto(j) ",
  " selected.": " elektita(j).",
  "Please consider a small ": "Bonvolu pripensi malgrandan ",
  "donation": "donacon",
  " to help keeping Meta-Press.es up-to-date.": " por helpi ĝisdatigon de Meta-Press.es",
  "No results.": "Neniu rezulto.",
  "Number of results by page:": "Nombro da rezulto(j) ĉiupaĝe: ",
  "Total": "Totalo",
  "Last day": "Lasta tago",
  "Last 2 days": "Lastaj 2 tagoj",
  "Last 3 days": "Lastaj 3 tagoj",
  "Last week": "Lasta semajno",
  "Last 2 wks": "Lastaj 2 semajnoj",
  "Last month": "Lasta monato",
  "Last 2 mon.": "Lastaj du monatoj",
  "Last 6 mon.": "Lastaj 6 monatoj",
  "Last year": "Lasta jaro",
  "Last 2 yrs": "Lastaj 2 jaroj",
  "Last 5 yrs": "Lastaj 5 jaroj",
  "Last decade": "Lastaj 10 jaroj",
  "All results": "Ĉiuj rezultoj",
  "Save search as:": "Registrigi la serĉon kiel:",
  "RSS file": "formato RSS",
  "Selection mode:": "Elekta reĝimo",
  "✅ toggle": "✅ baskuli",
  "Export selection in:": "Alŝuti la selekton en :",
  "Sources: ": "Fontoj: ",
  " (loaded in ": " (elŝutitaj en ",
  "s) for ": "s) por ",
  " countries and ": " landoj kaj ",
  " languages.": " lingvoj.",
  "⇬ Back to top": "⇬ Reiro supren",
  "✍ Report feedback": "✍ Reiro al uzanto",
  "€ Support the project": "€ Reiro ĉe investo",
  " WebExtension made by ": " Reta kromprogramo fare de ",
  " with ": " kun ",
  " and ": " kaj ",
  "Meta-Press.es needs the permission to read the content of the selected sources.\nThose \"host\" permissions can be dropped or requested once and for all via the\nMeta-Press.es setting page.": "Meta-Press bezonas la permeson legi la enhavon el la elektitaj fontoj.",
  "Mobile Dev Tools": "",
  "Skip to main input": "Iru al ĉefa enigo",
  "RSS feed file": "Dosiero RSS",
  "Like this :-)": "Tiele :-)",
  "Meta-Press.es logo by Elisa de Castro Guerra": "Emblemo de Meta-Press.es fare de Elisa de Castro Guerra",
  "Show this quantity of headlines at once": "Afiŝi tiun kvanton da aktualajoj samtempe.",
  "Reload the headlines": "Reŝargi paĝotitolojn",
  "Type your query here": "Tajpu vian serĉon ĉi tie",
  "Click here to start the search. You can also press the Enter key.": "Alklaki ĉi tie por ekserĉi. Oni ankaŭ povas premi la enigan klavon",
  "Click to reload the page and start a new search": "Alklaki por elŝuti denove la paĝon kaj eki novan serĉon",
  "Criterion to restrict the research to some sources only. For instance, if you want only French sources, select the 'fr' tag in the Country selector.": "Kriterioj por malpliigi la serĉon je kelkaj fontoj. Ekzemple, se vi volas serĉi nur en franclingvaj fontoj, selektu ‘fr’ en la landa listo.",
  "More selection criterion": "Pli da selektaj kriterioj",
  "Only sources of the selected types (press, radio, TV…) will be searched": "Nur fontoj pri elektitaj tipoj (gazetaro, radio, televidilo…) estos serĉitaj",
  "Only sources producing results from those selected types will be searched": "Nur fontoj pri elektitaj tipoj de rezultoj",
  "Only sources in the selected languages will be searched": "Nur fontoj pri elektitaj lingvoj estos serĉitaj",
  "Only sources of the selected themes will be searched": "Nur fontoj pri elektitaj temoj estos serĉitaj",
  "Only sources corresponding to all those selected criterion will be searched": "Nur fontoj pri ĉiuj elektitaj temoj estos serĉitaj",
  "Only sources flagged with those selected geographical areas will be seached": "Nur fontoj pri elektitaj geografiaj zonoj estos serĉitaj",
  "Only sources of those selected periodicity will be searched": "Nur fontoj pri elektita daŭro estos serĉitaj",
  "Only sources from the selected contries will be searched": "Nur fontoj pri elektitaj landoj estos serĉitaj",
  "You can also select one by one in which sources to search in": "Vi povas ankaŭ selekti unu post unu tiujn fontojn",
  "Reset default selection": "Reiro ĉe la defaŭltan selekton",
  "Local permalink for this search": "Ĉi tiea ĉiama ligilo por ĉi tiu serĉo",
  "Please donate today": "Bonvolu donaci hodiaŭ",
  "No result, because of a torn butterfly net ?": "Neniu rezulto… ĉu pro trua papilio reto ?",
  "Click to display all results again": "Alklaki por afiŝi denove ĉiujn rezultojn",
  "Remove results of this source": "Formeti tiujn fontajn rezultojn",
  "Link to the results in the source site": "Ligilo al la rezultoj ĉe la reteja fonto",
  "Clear filter": "Malplenigi filtrilon",
  "toggle selection mode": "baskuli elekto-reĝimon",
  "Libres Software Service Society": "Societo de Servo pri Liberaj Programaroj",
  "Adding search, sort, filters and flexibility to various existing HTML element collections.": "Aldonas serĉon, elekton, filtradon kaj flekseblecon al diversaj haveblaj kolektoj da HTML eroj.",
  "A vanilla, lightweight, configurable select box/text input plugin. Similar to Select2 and Selectize but without the jQuery dependency.": "",
  "This choice would result in an empty selection.": "Tiu elekto donus malplenan selekton.",
  "Filter results of": "Filtri rezultojn de",
  "only": "nur",
  "Meta-Press.es butterfly net logo": "Meta-Press.es logo de papilia reto",
  "Search terms, ex.": "Eroj de serĉo, ekzemploj",
  "Filter results": "Rezultoj de filtro",
  "https://liberapay.com/Meta-Press.es": "",
  "Settings of Meta-Press.es": "Agordoj de Meta-Press.es",
  "General": "Ĝenerala",
  "Language: ": "Lingvo: ",
  "Default": "Implicita",
  "Dark background: ": "Malhela fono: ",
  "Auto": "Mem",
  "Dark": "Malhela",
  "Light": "Hela",
  "Reload search when source filters change: ": "Reŝarĝas serĉon post kiam la filtriloj de fonto ŝanĝas: ",
  "Search": "Serĉo",
  "Max. results by source: ": "Maksimumaj rezultoj je fonto: ",
  "Deduplicate results (based on title): ": "Deduktaj rezultoj (surbaze de titoloj): ",
  "Load photos in results: ": "Elŝutas fotojn en rezultoj: ",
  "Headlines": "supraj paĝotitoloj",
  "Load headlines: ": "Ŝarĝas suprajn paĝotitolojn: ",
  "Reload headlines when source filters change: ": "Reŝarĝas suprajn paĝotitolojn post kiam la filtriloj de fonto ŝanĝas: ",
  "Max. loaded elements: ": "Maksimumaj eroj ŝarĝitaj: ",
  "Default page size: ": "Defaŭltaj grandoj de paĝo: ",
  "Permissions": "Permesoj",
  "To be able to read results from the sources, Meta-Press.es needs their \"host permission\".": "Por kapabli legi rezultadojn el fontoj Meta-Press bezonas iliajn \"host permission\".",
  "Request all host permissions: ": "Peti gastigantajn permesojn: ",
  "Request": "Peti",
  "Remember host permissions: ": "Memorigi gastigantajn permesojn: ",
  "Drop all host permissions: ": "Nuligi ĉiujn gastigantajn permesojn: ",
  "Drop": "Nuligi",
  "New sources": "Novaj fontoj",
  "You can define more sources to search in, adding the corresponding instructions in the following JSON editing text area.": "Vi povas difini novajn fontojn en kiuj serĉi, aldonante la korespondajn uzindikojn en la sekvanta JSON redaktilo.",
  "Some ": "pluraj ",
  "instructions": "uzindikoj",
  " about how to define a source can be found": " pri : kiel difini novan troveblan fonton",
  "here": "ĉi tie",
  "(en/fr) and more examples are shown below.": " kaj ekzemploj estas listigitaj ĉi-malsupre.",
  "Line number ": "linia numero ",
  " ; column number ": " ; kolumna numero ",
  "💾  Save": "💾  Konservi",
  "Reload your Meta-Press.es addon tab to take your changes into account.": "Alŝutu denove viajn tabaron Meta-Press.es por reinformpeti.",
  "Put ": "Enskribi nur ",
  "valid JSON": "validan JSON",
  " here, use only double quotes: ": " ĉi tie nur uzante duoblajn citilojn: ",
  " ; and no trailling comas: ": " ; kaj ne repetitajn komojn: ",
  "Here are the ": "Oni retrovas ĉi tie la ",
  "provided sources": "indikitajn fontojn",
  " to help you finding inspiration with examples. For instance :": " por ke oni povu sugesti el ili. Ekzemple :",
  " provides results in ": " indikas rezultojn en ",
  "extends": "etendas",
  "the ": "la ",
  " uses the HTTP ": " uzas la metodon ",
  " method;": " HTTP;",
  " uses ": " uzas selektilojn ",
  " selectors to parse HTML.": " por analizi la HTML.",
  "s to parse some fields.": "por reakiri kelkajn kampojn.",
  "Added sources will remain accessible between searchs and updates.": "La ĉi tie aldonitaj fontoj restos haveblaj inter du ĝisdatigoj.",
  "If you defined usefull sources, ": "Se vi difinis taŭgeblan fonton kiu povus utili al aliuloj, ",
  "please copy/paste us the corresponding JavaScript object:": "bonvolu sendi al ni la taŭgan kodon:",
  "by email at ": "per retpoŝtmesaĝo al ",
  "or via the ": "aŭ senpere ",
  "code repository": "ĉe la celdosierujo de la projekto",
  ", creating an issue or a pull request.": ", kreante kodan proponon (pull-request).",
  "This page uses ": "Ĉi tiu paĝo uzas ",
  ", and ": ", kaj ",
  "Artwork by ": "Artverko fare de ",
  "https://www.meta-press.es/pages/meta-press.es_documentation.html#_how_to_add_a_new_source_to_the_search_engine": "",
  "https://developer.mozilla.org/en-US/docs/Web/JavaScript/Reference/Global_Objects/JSON/parse": ""
}
