{
  "": {
    "language": "fr",
    "plural-forms": "nplurals=2; plural=(n!=1);"
  },
  "Import: ": "",
  "A propos": "À propos",
  "Position the cursor still over elements to get more info on them.": "Placer le curseur sur un élément pour obtenir plus d'info à son sujet.",
  "Settings": "Réglages",
  "Load some headlines": "Charger des gros titres",
  "Show: ": "Montrer:",
  "all": "tout",
  " headlines ": " titres ",
  "Cancel": "Annuler",
  "Select sources by:": "Sélectionner les sources par :",
  "Type:": "Type de source",
  "encyclo.": "",
  "institution": "",
  "magazine": "",
  "peer review": "",
  "Press": "Presse",
  "Radio": "",
  "Reference Press": "Presse de référence",
  "Scientific Press": "Presse scientifique",
  "TV": "",
  "Result type:": "Type de résultat",
  "audio": "",
  "photo": "",
  "text": "texte",
  "video": "vidéo",
	"Illustrated": "Illustrée",
  "Language:": "Langue",
  "Themes:": "Thèmes",
  "docu.": "",
  "ecology": "écologie",
  "financial": "finance",
  "general": "général",
  "life-style": "mode de vie",
  "media": "média",
  "politics": "politique",
  "science": "sciences",
  "techno.": "",
  "Technical criterion:": "Critères techniques",
  "AND": "ET",
  "approx": "",
  "exact": "",
  "fast": "rapide",
  "OR": "OU",
  "own search": "recherche interne",
  "slow": "lent",
  "Scope:": "Portée",
  "International": "",
  "National": "",
  "Regional": "Régional",
  "Periodicity:": "Périodicité",
  "daily": "quotidien",
  "half-yearly": "semestriel",
  "monthly": "mensuel",
  "weekly": "hebdomadaire",
  "Country:": "Pays",
  "Cherry-pick sources:": "Choisir les sources",
  "Custom Source": "Source personnalisée",
  "Currently ": "Actuellement ",
  " source(s) selected. ": " source(s) sélectionnée(s). ",
  " reset filters": " ràz filtres",
  " create source": " créer une source",
  " is ": " ",
  "waiting for ": "attend ",
  " source(s)": "",
  " over ": " sur ",
  " selected, since ": " sélectionnée(s), depuis ",
  " fetched ": " a récupéré ",
  " results for \"": " résultats pour \"",
  " in ": " en ",
  "s from ": "s depuis ",
  " source(s) over ": " source(s) sur ",
  " selected.": " sélectionnée(s).",
  "Please consider a small ": "S'il vous plait, considérez l'opportunité de faire un ",
  "donation": "don",
  " to help keeping Meta-Press.es up-to-date.": " pour aider à garder Meta-Press.es à jour.",
  "No results.": "Aucun résultat.",
  "Number of results by page:": "Nombre de résultats par page : ",
  "Total": "",
  "Last day": "Dernier j.",
  "Last 2 days": "2 der. j.",
  "Last 3 days": "3 der. j.",
  "Last week": "Der. sem.",
  "Last 2 wks": "2 der. sem.",
  "Last month": "Der. mois",
  "Last 2 mon.": "2 der. mois",
  "Last 6 mon.": "6 der. mois",
  "Last year": "Un an",
  "Last 2 yrs": "2 ans",
  "Last 5 yrs": "3 ans",
  "Last decade": "10 ans",
  "All results": "Tout",
  "Save search as:": "Sauver la recherche en :",
  "RSS file": "format RSS",
  "Selection mode:": "Mode de sélection :",
  "✅ toggle": "✅ basculer",
  "Export selection in:": "Exporter la sélection en :",
  "Sources: ": "",
  " (loaded in ": " (chargées en ",
  "s) for ": "s) pour ",
  " countries and ": " pays et ",
  " languages.": " langues.",
  "⇬ Back to top": "⇬ Retour en haut",
  "✍ Report feedback": "✍ Retour utilisateur",
  "€ Support the project": "€ Retour sur investissement",
  " WebExtension made by ": " WebExtension faite par ",
  " with ": " avec ",
  " and ": " et ",
  "Meta-Press.es needs the permission to read the content of the selected sources.\nThose \"host\" permissions can be dropped or requested once and for all via the\nMeta-Press.es setting page.": "Meta-Press.es a besoin de la permission de lire le contenu des sources sélectionnées.\nCes \"permissions d'hôte\" peuvent être retirées, ou données toutes d'un coup dans la page de paramètres de Meta-Press.es.",
  "Mobile Dev Tools": "",
  "Skip to main input": "Aller à la saisie",
  "RSS feed file": "Fichier RSS",
  "Like this :-)": "Comme ça :-)",
  "Meta-Press.es logo by Elisa de Castro Guerra": "Logo de Meta-Press.es par Élisa de Castro Guerra",
  "Show this quantity of headlines at once": "Afficher cette quantité d'actu. à la fois.",
  "Reload the headlines": "Recharger les gros titres",
  "Type your query here": "Saisissez votre requête ici",
  "Click here to start the search. You can also press the Enter key.": "Cliquer ici pour lancer la recherche. Il est également possible de presser la touche Entrée.",
  "Click to reload the page and start a new search": "Cliquer pour recharger la page et lancer une nouvelle recherche.",
  "Criterion to restrict the research to some sources only. For instance, if you want only French sources, select the 'fr' tag in the Country selector.": "Critères pour restreindre la recherche à certaines sources. Par exemple, pour ne chercher que dans les sources en français, sélectionner le choix 'fr' dans la liste des Pays.",
  "More selection criterion": "Plus de critères de sélection",
  "Only sources of the selected types (press, radio, TV…) will be searched": "Seules les sources de ce type (presse, radio, TV…) seront interrogées",
  "Only sources producing results from those selected types will be searched": "Seules les sources produisant des résultats de ce type seront interrogées",
  "Only sources in the selected languages will be searched": "Seules les sources correspondant aux langues sélectionnées seront interrogées",
  "Only sources of the selected themes will be searched": "Seules les sources correspondant aux thèmes sélectionnés seront interrogées",
  "Only sources corresponding to all those selected criterion will be searched": "Seules les sources correspondant à tous ces critères seront interrogées",
  "Only sources flagged with those selected geographical areas will be seached": "Seules les sources étiquetées avec critères géographiques seront interrogées",
  "Only sources of those selected periodicity will be searched": "Seules les sources correspondant à ces périodicités seront interrogées",
  "Only sources from the selected contries will be searched": "Seules les sources des pays sélectionnés seront interrogées",
  "You can also select one by one in which sources to search in": "Il est aussi possible de sélectionner les sources dans lesquelles chercher une par une",
  "Reset default selection": "Retour à la sélection par défaut",
  "Local permalink for this search": "Permalien local pour cette recherche",
  "Please donate today": "Faîtes un don aujourd'hui s'il vous plait",
  "No result, because of a torn butterfly net ?": "Pas de résultats… à cause d'un filet à papillon percé ?",
  "Click here to load images": "Cliquer ici pour charger les images",
  "Click to display all results again": "Cliquer pour afficher tous les résultats à nouveau",
  "Remove results of this source": "Retirer les résultats de cette source",
  "Link to the results in the source site": "Lien vers les résultats sur le site de la source",
  "Clear filter": "Vider le filtre",
  "toggle selection mode": "basculer le mode de sélection",
  "Libres Software Service Society": "Société de Service en Logiciels Libres",
  "Adding search, sort, filters and flexibility to various existing HTML element collections.": "Ajoute recherche, tri, filtrage et flexibilité à diverses collections existantes d'éléments HTML.",
  "A vanilla, lightweight, configurable select box/text input plugin. Similar to Select2 and Selectize but without the jQuery dependency.": "",
  "This choice would result in an empty selection.": "Ce choix aboutirait à une sélection vide.",
  "Filter results of": "Filtrer les résultats de",
  "only": "seulement",
  "Meta-Press.es butterfly net logo": "Logo \"filet à papillon\" de Meta-Press.es",
  "Search terms, ex.": "Termes de recherche, ex.",
  "Filter results": "Filtrer les résultats",
  "https://liberapay.com/Meta-Press.es": "",
  "Settings of Meta-Press.es": "Réglages de Meta-Press.es",
  "General": "Généraux",
  "Language: ": "Langue : ",
  "Default": "",
  "Dark background: ": "Fond sombre : ",
  "Auto": "",
  "Dark": "Sombre",
  "Light": "Clair",
  "Reload search when source filters change: ": "Recharger la recherche si les filtres sont changés : ",
  "Search": "Recherche",
  "Max. results by source: ": "Nombre max. de résultats par source : ",
  "Deduplicate results (based on title): ": "Dédupliquer les résultats (à partir des titres) : ",
  "Load photos in results: ": "Charger les photos dans les résultats : ",
  "Headlines": "Gros titres",
  "Load headlines: ": "Charger les gros titres : ",
  "Reload headlines when source filters change: ": "Recharger les gros titres si les filtres changent : ",
  "Max. loaded elements: ": "Nombre max. d'éléments chargés : ",
  "Default page size: ": "Nombre d'éléments par page : ",
  "Permissions": "",
  "To be able to read results from the sources, Meta-Press.es needs their \"host permission\".": "Pour lire les résultats de chaque sources, Meta-Press.es a besoin de leur \"permission d'hôte\".",
  "Request all host permissions: ": "Donner toutes les permissions d'hôte : ",
  "Request": "Donner",
  "Remember host permissions: ": "Conserver les permissions d'hôte : ",
  "Drop all host permissions: ": "Retirer toutes les permissions d'hôte : ",
  "Drop": "Retirer",
  "New sources": "Nouvelles sources",
  "You can define more sources to search in, adding the corresponding instructions in the following JSON editing text area.": "Vous pouvez définir de nouvelles sources dans lesquelles chercher, en ajoutant les instructions correspondantes dans l'éditeur JSON suivant.",
  "Some ": "Des ",
  "instructions": "instructions",
  " about how to define a source can be found": " à propos de comment définir une nouvelle source peuvent être trouvée",
  "here": "ici",
  "(en/fr) and more examples are shown below.": "et des exemples sont listés ci-dessous.",
  "Line number ": "Numéro de ligne ",
  " ; column number ": " ; numéro de colonne ",
  "💾  Save": "💾  Sauver",
  "Reload your Meta-Press.es addon tab to take your changes into account.": "Recharger vos onglets Meta-Press.es pour que les changements soient pris en compte.",
  "Put ": "N'inscrire que du ",
  "valid JSON": "JSON valide",
  " here, use only double quotes: ": " ici, en utilisant seulement des guillemets doubles : ",
  " ; and no trailling comas: ": " ; et pas de virgule trainante : ",
  "Here are the ": "On retrouve ici les ",
  "provided sources": "sources fournies",
  " to help you finding inspiration with examples. For instance :": " pour pouvoir s'en inspirer. Par exemple :",
  " provides results in ": " fournit des résultats en ",
  "extends": "étend",
  "the ": "le ",
  " uses the HTTP ": " utilise la méthode ",
  " method;": " HTTP;",
  " uses ": "utilise des sélecteurs ",
  " selectors to parse HTML.": " pour analyser le HTML.",
  "s to parse some fields.": " pour récupérer certains champs.",
  "Added sources will remain accessible between searchs and updates.": "Les sources ajoutées ici resteront accessibles entre deux mises à jour.",
  "If you defined usefull sources, ": "Si vous avez défini une source qui pourrait être utile aux autres, ",
  "please copy/paste us the corresponding JavaScript object:": "envoyez-nous, s'il vous plait, le code correspondant : ",
  "by email at ": "par courriel à ",
  "or via the ": "ou directement ",
  "code repository": "sur le dépôt du projet",
  ", creating an issue or a pull request.": ", en créant une proposition de code (pull-request).",
  "This page uses ": "Cette page utilise ",
  ", and ": ", et ",
  "Artwork by ": "Graphisme par ",
  "https://www.meta-press.es/pages/meta-press.es_documentation.html#_how_to_add_a_new_source_to_the_search_engine": "https://www.meta-press.es/fr/pages/meta-press.es_documentation.html#_comment_ajouter_une_source_au_moteur_de_recherche",
  "https://developer.mozilla.org/en-US/docs/Web/JavaScript/Reference/Global_Objects/JSON/parse": "https://developer.mozilla.org/fr/docs/Web/JavaScript/Reference/Global_Objects/JSON/parse"
}
